             precision    recall  f1-score   support

        0.0       0.64      0.67      0.65      1000
        1.0       0.84      0.93      0.88      1000
        2.0       0.66      0.58      0.62      1000
        3.0       0.69      0.65      0.67      1000
        4.0       0.65      0.57      0.61      1000
        5.0       0.81      0.89      0.85      1000
        6.0       0.48      0.38      0.42      1000
        7.0       0.86      0.75      0.80      1000
        8.0       0.75      0.91      0.82      1000
        9.0       0.79      0.92      0.85      1000

avg / total       0.72      0.72      0.72     10000
[[669  12  51  86  17  10  62   1  74  18]
 [  2 933   9  27   3   3   9   1  11   2]
 [ 70  28 582  26 102   7 117   1  58   9]
 [ 86  93  26 646  31  14  44   2  42  16]
 [ 37  18 104  55 572   1 169   2  36   6]
 [  2   0   0   0   0 893   0  57   7  41]
 [172  22 108  90 143  11 376   1  63  14]
 [  0   0   0   0   0 120   1 750   2 127]
 [ 14   9   7   7   6  22   9   5 909  12]
 [  0   0   0   3   0  25   0  50   6 916]]